%YAML 1.1
%TAG !u! tag:unity3d.com,2011:
--- !u!114 &11400000
MonoBehaviour:
  m_ObjectHideFlags: 0
  m_CorrespondingSourceObject: {fileID: 0}
  m_PrefabInstance: {fileID: 0}
  m_PrefabAsset: {fileID: 0}
  m_GameObject: {fileID: 0}
  m_Enabled: 1
  m_EditorHideFlags: 0
  m_Script: {fileID: 11500000, guid: aef183b872bc4fd6b31ce8b5d8c35f11, type: 3}
  m_Name: BrawlerEnemy_Takedown_1B
  m_EditorClassIdentifier: 
  m_TransitionIn: 0.1
  m_TransitionOut: 0.2
  m_UseRootMotion: 1
  m_Speed:
    m_Property:
      rid: 7624061098313122545
  m_ReactionList:
    m_List:
    - rid: 7624061074270060996
  m_OnEnter:
    m_Instructions:
      m_Instructions:
      - rid: 3647791562686726190
      - rid: 3647791501164937910
      - rid: 3647791498924655458
      - rid: 7624061098313121931
      - rid: 3647791501164937324
      - rid: 3647791501857259623
      - rid: 3647791501164937914
      - rid: 3647791591713145558
  m_OnExit:
    m_Instructions:
      m_Instructions: []
  references:
    version: 2
    RefIds:
    - rid: 3647791498924655458
      type: {class: InstructionCharacterRemoveCandidateTarget, ns: GameCreator.Runtime.VisualScripting,
        asm: GameCreator.Runtime.Core}
      data:
        m_Breakpoint: 0
        m_IsEnabled: 1
        m_Character:
          m_Property:
            rid: 3647791498924655459
        m_Target:
          m_Property:
            rid: 3647791498924655461
    - rid: 3647791498924655459
      type: {class: GetGameObjectPlayer, ns: GameCreator.Runtime.Characters, asm: GameCreator.Runtime.Core}
      data: 
    - rid: 3647791498924655461
      type: {class: GetGameObjectSelf, ns: GameCreator.Runtime.Common, asm: GameCreator.Runtime.Core}
      data: 
    - rid: 3647791501164937324
      type: {class: InstructionLogicRaiseSignal, ns: GameCreator.Runtime.VisualScripting,
        asm: GameCreator.Runtime.Core}
      data:
        m_Breakpoint: 0
        m_IsEnabled: 1
        m_Signal:
          m_String: EnemyHit
    - rid: 3647791501164937910
      type: {class: InstructionMeleeUnequipWeapon, ns: GameCreator.Runtime.Melee,
        asm: GameCreator.Runtime.Melee}
      data:
        m_Breakpoint: 0
        m_IsEnabled: 1
        m_Character:
          m_Property:
            rid: 3647791501164937913
        m_Weapon:
          m_Property:
            rid: 3647791501164937912
    - rid: 3647791501164937912
      type: {class: GetWeaponMeleeInstance, ns: GameCreator.Runtime.Melee, asm: GameCreator.Runtime.Melee}
      data:
        m_Weapon: {fileID: 11400000, guid: 4d72e80eafdd12a439e0e17e70db52f3, type: 2}
    - rid: 3647791501164937913
      type: {class: GetGameObjectSelf, ns: GameCreator.Runtime.Common, asm: GameCreator.Runtime.Core}
      data: 
    - rid: 3647791501164937914
      type: {class: InstructionCharacterEnterState, ns: GameCreator.Runtime.VisualScripting,
        asm: GameCreator.Runtime.Core}
      data:
        m_Breakpoint: 0
        m_IsEnabled: 1
        m_Character:
          m_Property:
            rid: 3647791501164938120
        m_State:
          m_StateType: 2
          m_AnimationClip:
            m_Property:
              rid: 3647791501164937916
          m_RuntimeController: {fileID: 0}
          m_State: {fileID: 11400000, guid: 02353280bc916ff448ca7b62b43e9033, type: 2}
          m_AvatarMask: {fileID: 0}
        m_Layer:
          m_Property:
            rid: 3647791501164937917
        m_BlendMode: 0
        m_Delay: 0
        m_Speed: 1
        m_Weight: 1
        m_Transition: 0.1
    - rid: 3647791501164937916
      type: {class: GetAnimationInstance, ns: GameCreator.Runtime.Common, asm: GameCreator.Runtime.Core}
      data:
        m_Value: {fileID: 0}
    - rid: 3647791501164937917
      type: {class: GetDecimalInteger, ns: GameCreator.Runtime.Common, asm: GameCreator.Runtime.Core}
      data:
        m_Value: 10
    - rid: 3647791501164938120
      type: {class: GetGameObjectSelf, ns: GameCreator.Runtime.Common, asm: GameCreator.Runtime.Core}
      data: 
    - rid: 3647791501857259623
      type: {class: InstructionLogicRaiseSignal, ns: GameCreator.Runtime.VisualScripting,
        asm: GameCreator.Runtime.Core}
      data:
        m_Breakpoint: 0
        m_IsEnabled: 1
        m_Signal:
          m_String: EnemyTakedown
    - rid: 3647791562686726190
      type: {class: InstructionGameObjectDisableComponent, ns: GameCreator.Runtime.VisualScripting,
        asm: GameCreator.Runtime.Core}
      data:
        m_Breakpoint: 0
        m_IsEnabled: 1
        m_GameObject:
          m_Property:
            rid: 3647791562686726192
        m_Type:
          m_TypeName: GameCreator.Runtime.Behavior.Processor, GameCreator.Runtime.Behavior,
            Version=0.0.0.0, Culture=neutral, PublicKeyToken=null
    - rid: 3647791562686726192
      type: {class: GetGameObjectSelf, ns: GameCreator.Runtime.Common, asm: GameCreator.Runtime.Core}
      data: 
    - rid: 3647791591713145558
      type: {class: InstructionLogicRaiseSignal, ns: GameCreator.Runtime.VisualScripting,
        asm: GameCreator.Runtime.Core}
      data:
        m_Breakpoint: 0
        m_IsEnabled: 1
        m_Signal:
          m_String: EnemyDead
    - rid: 7624061074270060996
      type: {class: ReactionItem, ns: GameCreator.Runtime.Characters, asm: GameCreator.Runtime.Core}
      data:
        m_Breakpoint: 0
        m_IsEnabled: 1
        m_MinPower:
          m_IsEnabled: 0
          m_Value: 1
        m_Direction: 0
        m_Conditions:
          m_Conditions:
            m_Conditions: []
        m_AvatarMask: {fileID: 0}
        m_CancelTime:
          m_IsEnabled: 0
          m_Value: 0.5
        m_Rotation: 0
        m_Gravity: 1
        m_Animations:
          m_Animations:
          - {fileID: 7400000, guid: c3f0b2ca4d8cf4e458d3fcb15f26671a, type: 2}
    - rid: 7624061098313121931
      type: {class: InstructionCharacterKill, ns: GameCreator.Runtime.VisualScripting,
        asm: GameCreator.Runtime.Core}
      data:
        m_Breakpoint: 0
        m_IsEnabled: 1
        m_Character:
          m_Property:
            rid: 7624061098313121933
    - rid: 7624061098313121933
      type: {class: GetGameObjectSelf, ns: GameCreator.Runtime.Common, asm: GameCreator.Runtime.Core}
      data: 
    - rid: 7624061098313122545
      type: {class: GetDecimalConstantOne, ns: GameCreator.Runtime.Common, asm: GameCreator.Runtime.Core}
      data: 
