%YAML 1.1
%TAG !u! tag:unity3d.com,2011:
--- !u!114 &11400000
MonoBehaviour:
  m_ObjectHideFlags: 0
  m_CorrespondingSourceObject: {fileID: 0}
  m_PrefabInstance: {fileID: 0}
  m_PrefabAsset: {fileID: 0}
  m_GameObject: {fileID: 0}
  m_Enabled: 1
  m_EditorHideFlags: 0
  m_Script: {fileID: 11500000, guid: aef183b872bc4fd6b31ce8b5d8c35f11, type: 3}
  m_Name: BrawlerEnemy_Dead
  m_EditorClassIdentifier: 
  m_TransitionIn: 0.1
  m_TransitionOut: 0.2
  m_UseRootMotion: 1
  m_Speed:
    m_Property:
      rid: 7624061098313122545
  m_ReactionList:
    m_List:
    - rid: 7624061074270060996
  m_OnEnter:
    m_Instructions:
      m_Instructions:
      - rid: 3647791501164937918
      - rid: 3647791498924655462
      - rid: 7624061098313121931
      - rid: 3647791500037718361
  m_OnExit:
    m_Instructions:
      m_Instructions: []
  references:
    version: 2
    RefIds:
    - rid: 3647791498924655462
      type: {class: InstructionCharacterRemoveCandidateTarget, ns: GameCreator.Runtime.VisualScripting,
        asm: GameCreator.Runtime.Core}
      data:
        m_Breakpoint: 0
        m_IsEnabled: 1
        m_Character:
          m_Property:
            rid: 3647791498924655463
        m_Target:
          m_Property:
            rid: 3647791498924655464
    - rid: 3647791498924655463
      type: {class: GetGameObjectPlayer, ns: GameCreator.Runtime.Characters, asm: GameCreator.Runtime.Core}
      data: 
    - rid: 3647791498924655464
      type: {class: GetGameObjectSelf, ns: GameCreator.Runtime.Common, asm: GameCreator.Runtime.Core}
      data: 
    - rid: 3647791500037718361
      type: {class: InstructionCharacterEnterState, ns: GameCreator.Runtime.VisualScripting,
        asm: GameCreator.Runtime.Core}
      data:
        m_Breakpoint: 0
        m_IsEnabled: 1
        m_Character:
          m_Property:
            rid: 3647791500037718365
        m_State:
          m_StateType: 2
          m_AnimationClip:
            m_Property:
              rid: 3647791500037718363
          m_RuntimeController: {fileID: 0}
          m_State: {fileID: 11400000, guid: ac82cb45005db1d47b76014c5ce9e38d, type: 2}
          m_AvatarMask: {fileID: 0}
        m_Layer:
          m_Property:
            rid: 3647791500037718364
        m_BlendMode: 0
        m_Delay: 0
        m_Speed: 1
        m_Weight: 1
        m_Transition: 0.1
    - rid: 3647791500037718363
      type: {class: GetAnimationInstance, ns: GameCreator.Runtime.Common, asm: GameCreator.Runtime.Core}
      data:
        m_Value: {fileID: 0}
    - rid: 3647791500037718364
      type: {class: GetDecimalInteger, ns: GameCreator.Runtime.Common, asm: GameCreator.Runtime.Core}
      data:
        m_Value: 10
    - rid: 3647791500037718365
      type: {class: GetGameObjectSelf, ns: GameCreator.Runtime.Common, asm: GameCreator.Runtime.Core}
      data: 
    - rid: 3647791501164937918
      type: {class: InstructionMeleeUnequipWeapon, ns: GameCreator.Runtime.Melee,
        asm: GameCreator.Runtime.Melee}
      data:
        m_Breakpoint: 0
        m_IsEnabled: 1
        m_Character:
          m_Property:
            rid: 3647791501164937921
        m_Weapon:
          m_Property:
            rid: 3647791501164937920
    - rid: 3647791501164937920
      type: {class: GetWeaponMeleeInstance, ns: GameCreator.Runtime.Melee, asm: GameCreator.Runtime.Melee}
      data:
        m_Weapon: {fileID: 11400000, guid: 4d72e80eafdd12a439e0e17e70db52f3, type: 2}
    - rid: 3647791501164937921
      type: {class: GetGameObjectSelf, ns: GameCreator.Runtime.Common, asm: GameCreator.Runtime.Core}
      data: 
    - rid: 7624061074270060996
      type: {class: ReactionItem, ns: GameCreator.Runtime.Characters, asm: GameCreator.Runtime.Core}
      data:
        m_Breakpoint: 0
        m_IsEnabled: 1
        m_MinPower:
          m_IsEnabled: 0
          m_Value: 1
        m_Direction: 0
        m_Conditions:
          m_Conditions:
            m_Conditions: []
        m_AvatarMask: {fileID: 0}
        m_CancelTime:
          m_IsEnabled: 0
          m_Value: 0.5
        m_Rotation: 0
        m_Gravity: 1
        m_Animations:
          m_Animations:
          - {fileID: 7400000, guid: c7cea050c37018b4fb0afca6ca9eacfc, type: 2}
    - rid: 7624061098313121931
      type: {class: InstructionCharacterKill, ns: GameCreator.Runtime.VisualScripting,
        asm: GameCreator.Runtime.Core}
      data:
        m_Breakpoint: 0
        m_IsEnabled: 1
        m_Character:
          m_Property:
            rid: 7624061098313121933
    - rid: 7624061098313121933
      type: {class: GetGameObjectSelf, ns: GameCreator.Runtime.Common, asm: GameCreator.Runtime.Core}
      data: 
    - rid: 7624061098313122545
      type: {class: GetDecimalConstantOne, ns: GameCreator.Runtime.Common, asm: GameCreator.Runtime.Core}
      data: 
