%YAML 1.1
%TAG !u! tag:unity3d.com,2011:
--- !u!114 &11400000
MonoBehaviour:
  m_ObjectHideFlags: 0
  m_CorrespondingSourceObject: {fileID: 0}
  m_PrefabInstance: {fileID: 0}
  m_PrefabAsset: {fileID: 0}
  m_GameObject: {fileID: 0}
  m_Enabled: 1
  m_EditorHideFlags: 0
  m_Script: {fileID: 11500000, guid: 4c4be981628d4fcd80364b5052329739, type: 3}
  m_Name: Attack
  m_EditorClassIdentifier: 
  m_ID:
    m_String: attack
  m_Data:
    m_Base: 10
    m_Formula: {fileID: 0}
  m_Info:
    m_Name:
      m_Property:
        rid: 3900658851456484321
    m_Acronym:
      m_Property:
        rid: 3900658851456484322
    m_Description:
      m_Property:
        rid: 3900658851456484323
    m_Icon:
      m_Property:
        rid: 3900658851456484324
    m_Color: {r: 1, g: 1, b: 1, a: 1}
  references:
    version: 2
    RefIds:
    - rid: 3900658851456484321
      type: {class: GetStringString, ns: GameCreator.Runtime.Common, asm: GameCreator.Runtime.Core}
      data:
        m_Value: Attack
    - rid: 3900658851456484322
      type: {class: GetStringString, ns: GameCreator.Runtime.Common, asm: GameCreator.Runtime.Core}
      data:
        m_Value: ATT
    - rid: 3900658851456484323
      type: {class: GetStringString, ns: GameCreator.Runtime.Common, asm: GameCreator.Runtime.Core}
      data:
        m_Value: Description...
    - rid: 3900658851456484324
      type: {class: GetSpriteNone, ns: GameCreator.Runtime.Common, asm: GameCreator.Runtime.Core}
      data: 
