%YAML 1.1
%TAG !u! tag:unity3d.com,2011:
--- !u!114 &11400000
MonoBehaviour:
  m_ObjectHideFlags: 0
  m_CorrespondingSourceObject: {fileID: 0}
  m_PrefabInstance: {fileID: 0}
  m_PrefabAsset: {fileID: 0}
  m_GameObject: {fileID: 0}
  m_Enabled: 1
  m_EditorHideFlags: 0
  m_Script: {fileID: 11500000, guid: 4c4be981628d4fcd80364b5052329739, type: 3}
  m_Name: MaxHealth
  m_EditorClassIdentifier: 
  m_ID:
    m_String: maxhealth
  m_Data:
    m_Base: 100
    m_Formula: {fileID: 0}
  m_Info:
    m_Name:
      m_Property:
        rid: 3900658851456484307
    m_Acronym:
      m_Property:
        rid: 3900658851456484308
    m_Description:
      m_Property:
        rid: 3900658851456484309
    m_Icon:
      m_Property:
        rid: 3900658851456484310
    m_Color: {r: 1, g: 1, b: 1, a: 1}
  references:
    version: 2
    RefIds:
    - rid: 3900658851456484307
      type: {class: GetStringString, ns: GameCreator.Runtime.Common, asm: GameCreator.Runtime.Core}
      data:
        m_Value: Stat Name
    - rid: 3900658851456484308
      type: {class: GetStringString, ns: GameCreator.Runtime.Common, asm: GameCreator.Runtime.Core}
      data:
        m_Value: MHP
    - rid: 3900658851456484309
      type: {class: GetStringString, ns: GameCreator.Runtime.Common, asm: GameCreator.Runtime.Core}
      data:
        m_Value: Description...
    - rid: 3900658851456484310
      type: {class: GetSpriteNone, ns: GameCreator.Runtime.Common, asm: GameCreator.Runtime.Core}
      data: 
