%YAML 1.1
%TAG !u! tag:unity3d.com,2011:
--- !u!114 &11400000
MonoBehaviour:
  m_ObjectHideFlags: 0
  m_CorrespondingSourceObject: {fileID: 0}
  m_PrefabInstance: {fileID: 0}
  m_PrefabAsset: {fileID: 0}
  m_GameObject: {fileID: 0}
  m_Enabled: 1
  m_EditorHideFlags: 0
  m_Script: {fileID: 11500000, guid: 926b1857c61f413faedb2dbfeb093099, type: 3}
  m_Name: BrawlPlayer@Combo_1
  m_EditorClassIdentifier: 
  m_Title:
    m_Property:
      rid: 3647791494861947310
  m_Description:
    m_Property:
      rid: 3647791494861947311
  m_Icon:
    m_Property:
      rid: 3647791494861947312
  m_Color:
    m_Property:
      rid: 3647791494861947313
  m_Charge:
    m_State:
      m_StateType: 2
      m_AnimationClip:
        m_Property:
          rid: 3647791494861947314
      m_RuntimeController: {fileID: 0}
      m_State: {fileID: 0}
      m_AvatarMask: {fileID: 0}
    m_Layer: 6
  m_Strike:
    m_Direction: 3
    m_Predictions: 1
    m_UseStrikers: 0
    m_Id:
      m_String: striker-id
  m_Trail:
    m_IsActive: 1
    m_Length:
      m_IsEnabled: 0
      m_Value: 2
    m_Quads:
      m_IsEnabled: 0
      m_Value: 32
    m_Material:
      m_IsEnabled: 0
      m_Value: {fileID: 0}
  m_Effects:
    m_SoundUse:
      m_Property:
        rid: 3647791521863041325
    m_SoundStrike:
      m_Property:
        rid: 3647791521863041319
    m_SoundHit:
      m_Property:
        rid: 3647791521863041324
    m_SoundBlocked:
      m_Property:
        rid: 3647791494861947318
    m_SoundParried:
      m_Property:
        rid: 3647791494861947319
    m_HitPause: 0
    m_HitPauseTimeScale: 0.05
    m_HitPauseDelay: 0.1
    m_HitPauseDuration: 0.1
    m_HitEffect:
      m_Property:
        rid: 3647791521863041320
  m_Animation: {fileID: 7400000, guid: f888a1f151174f047ba6f13130043479, type: 2}
  m_Mask: {fileID: 0}
  m_Motion: 2
  m_SyncReaction: {fileID: 0}
  m_Gravity: 1
  m_TransitionIn: 0.1
  m_TransitionOut: 0.25
  m_MeleeSequence:
    m_Sequence:
      m_Tracks:
      - rid: 3647791494861947321
      - rid: 3647791494861947322
      - rid: 3647791494861947323
      - rid: 3647791494861947324
      - rid: 3647791494861947325
      - rid: 3647791494861947326
  m_SpeedAnticipation:
    m_Property:
      rid: 3647791494861947823
  m_SpeedStrike:
    m_Property:
      rid: 3647791494861947824
  m_SpeedRecovery:
    m_Property:
      rid: 3647791494861947825
  m_PoiseArmor:
    m_Property:
      rid: 3647791494861947330
  m_PoiseDamage:
    m_Property:
      rid: 3647791494861947331
  m_Power:
    m_Property:
      rid: 3647791494861947332
  m_OnStart:
    m_Instructions:
      m_Instructions: []
  m_OnFinish:
    m_Instructions:
      m_Instructions: []
  m_CanHit:
    m_Conditions:
      m_Conditions: []
  m_OnHit:
    m_Instructions:
      m_Instructions:
      - rid: 3647791494861947826
  <EditorModelPath>k__BackingField: 
  references:
    version: 2
    RefIds:
    - rid: 3647791494861947310
      type: {class: GetStringString, ns: GameCreator.Runtime.Common, asm: GameCreator.Runtime.Core}
      data:
        m_Value: Combo 1
    - rid: 3647791494861947311
      type: {class: GetStringTextArea, ns: GameCreator.Runtime.Common, asm: GameCreator.Runtime.Core}
      data:
        m_Text:
          m_Text: Simple Left Jab
    - rid: 3647791494861947312
      type: {class: GetSpriteNone, ns: GameCreator.Runtime.Common, asm: GameCreator.Runtime.Core}
      data: 
    - rid: 3647791494861947313
      type: {class: GetColorColorsWhite, ns: GameCreator.Runtime.Common, asm: GameCreator.Runtime.Core}
      data: 
    - rid: 3647791494861947314
      type: {class: GetAnimationInstance, ns: GameCreator.Runtime.Common, asm: GameCreator.Runtime.Core}
      data:
        m_Value: {fileID: 0}
    - rid: 3647791494861947318
      type: {class: GetAudioNone, ns: GameCreator.Runtime.Common, asm: GameCreator.Runtime.Core}
      data: 
    - rid: 3647791494861947319
      type: {class: GetAudioNone, ns: GameCreator.Runtime.Common, asm: GameCreator.Runtime.Core}
      data: 
    - rid: 3647791494861947321
      type: {class: TrackMeleePhases, ns: GameCreator.Runtime.Melee, asm: GameCreator.Runtime.Melee}
      data:
        m_Clips:
        - rid: 3647791494861947333
    - rid: 3647791494861947322
      type: {class: TrackMeleeCancel, ns: GameCreator.Runtime.Melee, asm: GameCreator.Runtime.Melee}
      data:
        m_Clips:
        - rid: 3647791494861947334
    - rid: 3647791494861947323
      type: {class: TrackMeleeRootMotionPosition, ns: GameCreator.Runtime.Melee, asm: GameCreator.Runtime.Melee}
      data:
        m_Clips:
        - rid: 3647791494861947335
    - rid: 3647791494861947324
      type: {class: TrackMeleeRootMotionRotation, ns: GameCreator.Runtime.Melee, asm: GameCreator.Runtime.Melee}
      data:
        m_Clips:
        - rid: 3647791494861947336
    - rid: 3647791494861947325
      type: {class: TrackMeleeMotionWarping, ns: GameCreator.Runtime.Melee, asm: GameCreator.Runtime.Melee}
      data:
        m_Clips:
        - rid: 3647791494861947337
    - rid: 3647791494861947326
      type: {class: TrackDefault, ns: GameCreator.Runtime.VisualScripting, asm: GameCreator.Runtime.Core}
      data:
        m_Clips: []
    - rid: 3647791494861947330
      type: {class: GetDecimalConstantOne, ns: GameCreator.Runtime.Common, asm: GameCreator.Runtime.Core}
      data: 
    - rid: 3647791494861947331
      type: {class: GetDecimalConstantOne, ns: GameCreator.Runtime.Common, asm: GameCreator.Runtime.Core}
      data: 
    - rid: 3647791494861947332
      type: {class: GetDecimalConstantOne, ns: GameCreator.Runtime.Common, asm: GameCreator.Runtime.Core}
      data: 
    - rid: 3647791494861947333
      type: {class: ClipMeleePhases, ns: GameCreator.Runtime.Melee, asm: GameCreator.Runtime.Melee}
      data:
        m_Time: 0.3
        m_Duration: 0.3
    - rid: 3647791494861947334
      type: {class: ClipMeleeCancel, ns: GameCreator.Runtime.Melee, asm: GameCreator.Runtime.Melee}
      data:
        m_Time: 0.20000002
        m_Duration: 0.5
    - rid: 3647791494861947335
      type: {class: ClipMeleeRootMotionPosition, ns: GameCreator.Runtime.Melee, asm: GameCreator.Runtime.Melee}
      data:
        m_Time: 0.3
        m_Duration: 0
    - rid: 3647791494861947336
      type: {class: ClipMeleeRootMotionRotation, ns: GameCreator.Runtime.Melee, asm: GameCreator.Runtime.Melee}
      data:
        m_Time: 0.3
        m_Duration: 0
    - rid: 3647791494861947337
      type: {class: ClipMeleeMotionWarping, ns: GameCreator.Runtime.Melee, asm: GameCreator.Runtime.Melee}
      data:
        m_Time: 0
        m_Duration: 0.3
        m_Conditions:
          m_Conditions:
            m_Conditions: []
        m_Easing: 3
        m_Self:
          m_Property:
            rid: 3647791494861947338
        m_Target:
          m_Property:
            rid: 3647791494861947339
    - rid: 3647791494861947338
      type: {class: GetLocationMeleeSelfToTarget, ns: GameCreator.Runtime.Melee, asm: GameCreator.Runtime.Melee}
      data:
        m_Distance:
          m_Property:
            rid: 3647791494861947340
        m_Axis: 5
        m_TrackTarget: 1
        m_Rotation: 1
    - rid: 3647791494861947339
      type: {class: GetLocationNone, ns: GameCreator.Runtime.Common, asm: GameCreator.Runtime.Core}
      data: 
    - rid: 3647791494861947340
      type: {class: GetDecimalDecimal, ns: GameCreator.Runtime.Common, asm: GameCreator.Runtime.Core}
      data:
        m_Value: 1
    - rid: 3647791494861947823
      type: {class: GetDecimalConstantOne, ns: GameCreator.Runtime.Common, asm: GameCreator.Runtime.Core}
      data: 
    - rid: 3647791494861947824
      type: {class: GetDecimalConstantOne, ns: GameCreator.Runtime.Common, asm: GameCreator.Runtime.Core}
      data: 
    - rid: 3647791494861947825
      type: {class: GetDecimalConstantOne, ns: GameCreator.Runtime.Common, asm: GameCreator.Runtime.Core}
      data: 
    - rid: 3647791494861947826
      type: {class: InstructionCameraShakeBurst, ns: GameCreator.Runtime.VisualScripting,
        asm: GameCreator.Runtime.Core}
      data:
        m_Breakpoint: 0
        m_IsEnabled: 1
        m_Camera:
          m_Property:
            rid: 3647791494861947827
        m_Delay: 0
        m_Duration: 0.5
        m_ShakeEffect:
          m_ShakePosition: 1
          m_ShakeRotation: 1
          m_Magnitude: 1
          m_Roughness: 2
          m_Transform: {fileID: 0}
          m_Radius: 10
    - rid: 3647791494861947827
      type: {class: GetGameObjectCameraMain, ns: GameCreator.Runtime.Cameras, asm: GameCreator.Runtime.Core}
      data: 
    - rid: 3647791521863041319
      type: {class: GetAudioClip, ns: GameCreator.Runtime.Common, asm: GameCreator.Runtime.Core}
      data:
        m_Value: {fileID: 8300000, guid: 095988e5ca0c043b9b9fd5ab4c30f43a, type: 3}
    - rid: 3647791521863041320
      type: {class: GetGameObjectInstance, ns: GameCreator.Runtime.Common, asm: GameCreator.Runtime.Core}
      data:
        m_GameObject: {fileID: 3135502183617210236, guid: 04124b357ce5f44f790264435901c671,
          type: 3}
    - rid: 3647791521863041324
      type: {class: GetAudioClip, ns: GameCreator.Runtime.Common, asm: GameCreator.Runtime.Core}
      data:
        m_Value: {fileID: 8300000, guid: 79832aa5f296f4d53870d82e6cc9548b, type: 3}
    - rid: 3647791521863041325
      type: {class: GetAudioNone, ns: GameCreator.Runtime.Common, asm: GameCreator.Runtime.Core}
      data: 
