%YAML 1.1
%TAG !u! tag:unity3d.com,2011:
--- !u!114 &11400000
MonoBehaviour:
  m_ObjectHideFlags: 0
  m_CorrespondingSourceObject: {fileID: 0}
  m_PrefabInstance: {fileID: 0}
  m_PrefabAsset: {fileID: 0}
  m_GameObject: {fileID: 0}
  m_Enabled: 1
  m_EditorHideFlags: 0
  m_Script: {fileID: 11500000, guid: d6965c45d6044a989f046010528d201e, type: 3}
  m_Name: BrawlPlayerCombo
  m_EditorClassIdentifier: 
  m_Combos:
    rid: 3647791494861947860
  references:
    version: 2
    RefIds:
    - rid: 3647791494861947860
      type: {class: ComboTree, ns: GameCreator.Runtime.Melee, asm: GameCreator.Runtime.Melee}
      data:
        m_Dirty: 17733
        m_Data:
          m_Keys: 8a090eeb6165be2874405e174a5026a9f9b4cfeed3835737511d2bd5
          m_Values:
          - m_Id: -351401590
            m_Value:
              rid: 3647791494861947862
          - m_Id: 683566433
            m_Value:
              rid: 3647791494861947864
          - m_Id: 392052852
            m_Value:
              rid: 3647791497536077957
          - m_Id: -1457106870
            m_Value:
              rid: 3647791497536078239
          - m_Id: -288377607
            m_Value:
              rid: 3647791501164937733
          - m_Id: 928482259
            m_Value:
              rid: 3647791521593295668
          - m_Id: -718594735
            m_Value:
              rid: 3647791542868378158
        m_Nodes:
          m_Keys: 8a090eeb6165be2874405e174a5026a9f9b4cfeed3835737511d2bd5
          m_Values:
          - m_Id: -351401590
            m_Parent: -1
            m_Children: 6165be28
          - m_Id: 683566433
            m_Parent: -351401590
            m_Children: 511d2bd5
          - m_Id: 392052852
            m_Parent: -1
            m_Children: 
          - m_Id: -1457106870
            m_Parent: -1
            m_Children: 
          - m_Id: -288377607
            m_Parent: -1
            m_Children: 
          - m_Id: 928482259
            m_Parent: -1
            m_Children: 
          - m_Id: -718594735
            m_Parent: 683566433
            m_Children: 
        m_Roots: d3835737f9b4cfee4a5026a974405e178a090eeb
    - rid: 3647791494861947862
      type: {class: ComboItem, ns: GameCreator.Runtime.Melee, asm: GameCreator.Runtime.Melee}
      data:
        m_IsDisabled: 0
        m_Key: 0
        m_Mode: 0
        m_When: 0
        m_AutoRelease: 0
        m_Timeout:
          m_Property:
            rid: 3647791494861947863
        m_HasDelay:
          m_IsEnabled: 0
          m_Value: 0.5
        m_Conditions:
          m_Conditions:
            m_Conditions: []
        m_Skill: {fileID: 11400000, guid: 339475569fa2f1548bf539e440a24388, type: 2}
    - rid: 3647791494861947863
      type: {class: GetDecimalConstantOne, ns: GameCreator.Runtime.Common, asm: GameCreator.Runtime.Core}
      data: 
    - rid: 3647791494861947864
      type: {class: ComboItem, ns: GameCreator.Runtime.Melee, asm: GameCreator.Runtime.Melee}
      data:
        m_IsDisabled: 0
        m_Key: 0
        m_Mode: 0
        m_When: 0
        m_AutoRelease: 0
        m_Timeout:
          m_Property:
            rid: 3647791494861947865
        m_HasDelay:
          m_IsEnabled: 0
          m_Value: 0.5
        m_Conditions:
          m_Conditions:
            m_Conditions: []
        m_Skill: {fileID: 11400000, guid: 0281dc70c9712ce43b5680df962e31f7, type: 2}
    - rid: 3647791494861947865
      type: {class: GetDecimalConstantOne, ns: GameCreator.Runtime.Common, asm: GameCreator.Runtime.Core}
      data: 
    - rid: 3647791497536077957
      type: {class: ComboItem, ns: GameCreator.Runtime.Melee, asm: GameCreator.Runtime.Melee}
      data:
        m_IsDisabled: 0
        m_Key: 0
        m_Mode: 0
        m_When: 0
        m_AutoRelease: 0
        m_Timeout:
          m_Property:
            rid: 3647791497536077958
        m_HasDelay:
          m_IsEnabled: 0
          m_Value: 0.5
        m_Conditions:
          m_Conditions:
            m_Conditions:
            - rid: 3647791497536077996
            - rid: 3647791497536078001
            - rid: 3647791497536078268
        m_Skill: {fileID: 11400000, guid: 436ce388811059a45ac2c432ef917e95, type: 2}
    - rid: 3647791497536077958
      type: {class: GetDecimalConstantOne, ns: GameCreator.Runtime.Common, asm: GameCreator.Runtime.Core}
      data: 
    - rid: 3647791497536077996
      type: {class: ConditionGameObjectExists, ns: GameCreator.Runtime.VisualScripting,
        asm: GameCreator.Runtime.Core}
      data:
        m_Breakpoint: 0
        m_IsEnabled: 1
        m_Sign: 1
        m_GameObject:
          m_Property:
            rid: 3647791497536077998
    - rid: 3647791497536077998
      type: {class: GetGameObjectCharacterTarget, ns: GameCreator.Runtime.Characters,
        asm: GameCreator.Runtime.Core}
      data:
        m_From:
          m_Property:
            rid: 3647791497536078000
    - rid: 3647791497536078000
      type: {class: GetGameObjectSelf, ns: GameCreator.Runtime.Common, asm: GameCreator.Runtime.Core}
      data: 
    - rid: 3647791497536078001
      type: {class: ConditionMathCompareDistance, ns: GameCreator.Runtime.VisualScripting,
        asm: GameCreator.Runtime.Core}
      data:
        m_Breakpoint: 0
        m_IsEnabled: 1
        m_Sign: 1
        m_PointA:
          m_Property:
            rid: 3647791497536078005
        m_PointB:
          m_Property:
            rid: 3647791497536078007
        m_Distance:
          m_Comparison: 5
          m_CompareTo:
            m_Property:
              rid: 3647791497536078004
    - rid: 3647791497536078004
      type: {class: GetDecimalDecimal, ns: GameCreator.Runtime.Common, asm: GameCreator.Runtime.Core}
      data:
        m_Value: 3
    - rid: 3647791497536078005
      type: {class: GetPositionSelf, ns: GameCreator.Runtime.Common, asm: GameCreator.Runtime.Core}
      data: 
    - rid: 3647791497536078007
      type: {class: GetPositionGameObject, ns: GameCreator.Runtime.Common, asm: GameCreator.Runtime.Core}
      data:
        m_GameObject:
          m_Property:
            rid: 3647791497536078009
    - rid: 3647791497536078009
      type: {class: GetGameObjectCharacterTarget, ns: GameCreator.Runtime.Characters,
        asm: GameCreator.Runtime.Core}
      data:
        m_From:
          m_Property:
            rid: 3647791497536078011
    - rid: 3647791497536078011
      type: {class: GetGameObjectSelf, ns: GameCreator.Runtime.Common, asm: GameCreator.Runtime.Core}
      data: 
    - rid: 3647791497536078239
      type: {class: ComboItem, ns: GameCreator.Runtime.Melee, asm: GameCreator.Runtime.Melee}
      data:
        m_IsDisabled: 1
        m_Key: 0
        m_Mode: 0
        m_When: 0
        m_AutoRelease: 0
        m_Timeout:
          m_Property:
            rid: 3647791497536078240
        m_HasDelay:
          m_IsEnabled: 0
          m_Value: 0.5
        m_Conditions:
          m_Conditions:
            m_Conditions:
            - rid: 3647791497536078241
            - rid: 3647791497536078246
        m_Skill: {fileID: 11400000, guid: f1e6e28b9e26bec48b31f659fd129ae0, type: 2}
    - rid: 3647791497536078240
      type: {class: GetDecimalConstantOne, ns: GameCreator.Runtime.Common, asm: GameCreator.Runtime.Core}
      data: 
    - rid: 3647791497536078241
      type: {class: ConditionGameObjectExists, ns: GameCreator.Runtime.VisualScripting,
        asm: GameCreator.Runtime.Core}
      data:
        m_Breakpoint: 0
        m_IsEnabled: 1
        m_Sign: 1
        m_GameObject:
          m_Property:
            rid: 3647791497536078243
    - rid: 3647791497536078243
      type: {class: GetGameObjectCharacterTarget, ns: GameCreator.Runtime.Characters,
        asm: GameCreator.Runtime.Core}
      data:
        m_From:
          m_Property:
            rid: 3647791497536078245
    - rid: 3647791497536078245
      type: {class: GetGameObjectSelf, ns: GameCreator.Runtime.Common, asm: GameCreator.Runtime.Core}
      data: 
    - rid: 3647791497536078246
      type: {class: ConditionMathCompareDistance, ns: GameCreator.Runtime.VisualScripting,
        asm: GameCreator.Runtime.Core}
      data:
        m_Breakpoint: 0
        m_IsEnabled: 1
        m_Sign: 1
        m_PointA:
          m_Property:
            rid: 3647791497536078250
        m_PointB:
          m_Property:
            rid: 3647791497536078251
        m_Distance:
          m_Comparison: 5
          m_CompareTo:
            m_Property:
              rid: 3647791497536078249
    - rid: 3647791497536078249
      type: {class: GetDecimalDecimal, ns: GameCreator.Runtime.Common, asm: GameCreator.Runtime.Core}
      data:
        m_Value: 5
    - rid: 3647791497536078250
      type: {class: GetPositionSelf, ns: GameCreator.Runtime.Common, asm: GameCreator.Runtime.Core}
      data: 
    - rid: 3647791497536078251
      type: {class: GetPositionGameObject, ns: GameCreator.Runtime.Common, asm: GameCreator.Runtime.Core}
      data:
        m_GameObject:
          m_Property:
            rid: 3647791497536078253
    - rid: 3647791497536078253
      type: {class: GetGameObjectCharacterTarget, ns: GameCreator.Runtime.Characters,
        asm: GameCreator.Runtime.Core}
      data:
        m_From:
          m_Property:
            rid: 3647791497536078255
    - rid: 3647791497536078255
      type: {class: GetGameObjectSelf, ns: GameCreator.Runtime.Common, asm: GameCreator.Runtime.Core}
      data: 
    - rid: 3647791497536078268
      type: {class: ConditionMathCompareDistance, ns: GameCreator.Runtime.VisualScripting,
        asm: GameCreator.Runtime.Core}
      data:
        m_Breakpoint: 0
        m_IsEnabled: 1
        m_Sign: 0
        m_PointA:
          m_Property:
            rid: 3647791497536078269
        m_PointB:
          m_Property:
            rid: 3647791497536078270
        m_Distance:
          m_Comparison: 2
          m_CompareTo:
            m_Property:
              rid: 3647791497536078271
    - rid: 3647791497536078269
      type: {class: GetPositionSelf, ns: GameCreator.Runtime.Common, asm: GameCreator.Runtime.Core}
      data: 
    - rid: 3647791497536078270
      type: {class: GetPositionGameObject, ns: GameCreator.Runtime.Common, asm: GameCreator.Runtime.Core}
      data:
        m_GameObject:
          m_Property:
            rid: 3647791497536078272
    - rid: 3647791497536078271
      type: {class: GetDecimalDecimal, ns: GameCreator.Runtime.Common, asm: GameCreator.Runtime.Core}
      data:
        m_Value: 5
    - rid: 3647791497536078272
      type: {class: GetGameObjectCharacterTarget, ns: GameCreator.Runtime.Characters,
        asm: GameCreator.Runtime.Core}
      data:
        m_From:
          m_Property:
            rid: 3647791497536078273
    - rid: 3647791497536078273
      type: {class: GetGameObjectSelf, ns: GameCreator.Runtime.Common, asm: GameCreator.Runtime.Core}
      data: 
    - rid: 3647791501164937733
      type: {class: ComboItem, ns: GameCreator.Runtime.Melee, asm: GameCreator.Runtime.Melee}
      data:
        m_IsDisabled: 0
        m_Key: 2
        m_Mode: 0
        m_When: 0
        m_AutoRelease: 0
        m_Timeout:
          m_Property:
            rid: 3647791501164937734
        m_HasDelay:
          m_IsEnabled: 0
          m_Value: 0.5
        m_Conditions:
          m_Conditions:
            m_Conditions:
            - rid: 3647791501164937735
        m_Skill: {fileID: 11400000, guid: 5a5ec825dbd2ff544bf73dc096f9e89e, type: 2}
    - rid: 3647791501164937734
      type: {class: GetDecimalConstantOne, ns: GameCreator.Runtime.Common, asm: GameCreator.Runtime.Core}
      data: 
    - rid: 3647791501164937735
      type: {class: ConditionCompareStat, ns: GameCreator.Runtime.Stats, asm: GameCreator.Runtime.Stats}
      data:
        m_Breakpoint: 0
        m_IsEnabled: 1
        m_Sign: 1
        m_Traits:
          m_Property:
            rid: 3647791501164937736
        m_Stat: {fileID: 11400000, guid: fe6175d3c8b987c42a3a8e3ef941f415, type: 2}
        m_CompareTo:
          m_Comparison: 5
          m_CompareTo:
            m_Property:
              rid: 3647791501164937737
    - rid: 3647791501164937736
      type: {class: GetGameObjectPlayer, ns: GameCreator.Runtime.Characters, asm: GameCreator.Runtime.Core}
      data: 
    - rid: 3647791501164937737
      type: {class: GetDecimalDecimal, ns: GameCreator.Runtime.Common, asm: GameCreator.Runtime.Core}
      data:
        m_Value: 5
    - rid: 3647791521593295668
      type: {class: ComboItem, ns: GameCreator.Runtime.Melee, asm: GameCreator.Runtime.Melee}
      data:
        m_IsDisabled: 0
        m_Key: 1
        m_Mode: 0
        m_When: 0
        m_AutoRelease: 0
        m_Timeout:
          m_Property:
            rid: 3647791521593295669
        m_HasDelay:
          m_IsEnabled: 0
          m_Value: 0.5
        m_Conditions:
          m_Conditions:
            m_Conditions: []
        m_Skill: {fileID: 11400000, guid: ec5a7a85322b9924b8e9b9d1ddc5711f, type: 2}
    - rid: 3647791521593295669
      type: {class: GetDecimalConstantOne, ns: GameCreator.Runtime.Common, asm: GameCreator.Runtime.Core}
      data: 
    - rid: 3647791542868378158
      type: {class: ComboItem, ns: GameCreator.Runtime.Melee, asm: GameCreator.Runtime.Melee}
      data:
        m_IsDisabled: 0
        m_Key: 0
        m_Mode: 0
        m_When: 0
        m_AutoRelease: 0
        m_Timeout:
          m_Property:
            rid: 3647791542868378159
        m_HasDelay:
          m_IsEnabled: 0
          m_Value: 0.5
        m_Conditions:
          m_Conditions:
            m_Conditions: []
        m_Skill: {fileID: 11400000, guid: 94d19f2a9a7f49441afae511ae518dfa, type: 2}
    - rid: 3647791542868378159
      type: {class: GetDecimalConstantOne, ns: GameCreator.Runtime.Common, asm: GameCreator.Runtime.Core}
      data: 
