%YAML 1.1
%TAG !u! tag:unity3d.com,2011:
--- !u!114 &11400000
MonoBehaviour:
  m_ObjectHideFlags: 0
  m_CorrespondingSourceObject: {fileID: 0}
  m_PrefabInstance: {fileID: 0}
  m_PrefabAsset: {fileID: 0}
  m_GameObject: {fileID: 0}
  m_Enabled: 1
  m_EditorHideFlags: 0
  m_Script: {fileID: 11500000, guid: c07b738becbd473c92520c1cdf024b76, type: 3}
  m_Name: BrawlPlayerWeapon
  m_EditorClassIdentifier: 
  m_Id:
    m_SerializedID:
      m_String: 094fd27d-fa5e-4d7d-9efc-a96c028a401c
  m_Title:
    m_Property:
      rid: 3647791494861947873
  m_Description:
    m_Property:
      rid: 3647791494861947874
  m_Icon:
    m_Property:
      rid: 3647791494861947875
  m_Color:
    m_Property:
      rid: 3647791494861947876
  m_HitReaction: {fileID: 11400000, guid: 245fd9df4cfffcb439e51cd44664881b, type: 2}
  m_ParriedReaction: {fileID: 0}
  m_OnEquip:
    m_Instructions:
      m_Instructions:
      - rid: 3647791497536077874
      - rid: 3647791497536077877
      - rid: 3647791497536077880
      - rid: 3647791497536077883
  m_OnUnequip:
    m_Instructions:
      m_Instructions:
      - rid: 3647791497536077886
      - rid: 3647791497536077889
      - rid: 3647791497536077892
      - rid: 3647791497536077895
  m_OnDodge:
    m_Instructions:
      m_Instructions: []
  m_Shield: {fileID: 0}
  m_State:
    m_StateType: 2
    m_AnimationClip:
      m_Property:
        rid: 3647791494861947877
    m_RuntimeController: {fileID: 0}
    m_State: {fileID: 0}
    m_AvatarMask: {fileID: 0}
  m_Layer:
    m_Property:
      rid: 3647791494861947878
  m_Combos:
    m_CombosFrom: 0
    m_CombosAsset: {fileID: 11400000, guid: c731b532ac8ad4d4cbea431af8c1133b, type: 2}
    m_CombosEmbed:
      rid: 3647791494861947879
  references:
    version: 2
    RefIds:
    - rid: 3647791494861947873
      type: {class: GetStringString, ns: GameCreator.Runtime.Common, asm: GameCreator.Runtime.Core}
      data:
        m_Value: Brawl Player
    - rid: 3647791494861947874
      type: {class: GetStringTextArea, ns: GameCreator.Runtime.Common, asm: GameCreator.Runtime.Core}
      data:
        m_Text:
          m_Text: Good Old Fists
    - rid: 3647791494861947875
      type: {class: GetSpriteNone, ns: GameCreator.Runtime.Common, asm: GameCreator.Runtime.Core}
      data: 
    - rid: 3647791494861947876
      type: {class: GetColorColorsWhite, ns: GameCreator.Runtime.Common, asm: GameCreator.Runtime.Core}
      data: 
    - rid: 3647791494861947877
      type: {class: GetAnimationInstance, ns: GameCreator.Runtime.Common, asm: GameCreator.Runtime.Core}
      data:
        m_Value: {fileID: 0}
    - rid: 3647791494861947878
      type: {class: GetDecimalInteger, ns: GameCreator.Runtime.Common, asm: GameCreator.Runtime.Core}
      data:
        m_Value: 5
    - rid: 3647791494861947879
      type: {class: ComboTree, ns: GameCreator.Runtime.Melee, asm: GameCreator.Runtime.Melee}
      data:
        m_Dirty: 0
        m_Data:
          m_Keys: 
          m_Values: []
        m_Nodes:
          m_Keys: 
          m_Values: []
        m_Roots: 
    - rid: 3647791497536077874
      type: {class: InstructionCharacterAttachProp, ns: GameCreator.Runtime.VisualScripting,
        asm: GameCreator.Runtime.Core}
      data:
        m_Breakpoint: 0
        m_IsEnabled: 1
        m_Character:
          m_Property:
            rid: 3647791497536077875
        m_Type: 0
        m_Prop:
          m_Property:
            rid: 3647791497536077876
        m_Handle:
          m_Type: 0
          m_Bone:
            m_Type: 1
            m_Human: 17
            m_Path: 
          m_LocalPosition: {x: 0, y: 0, z: 0}
          m_LocalRotation: {x: 0, y: 0, z: 0}
          m_Handle: {fileID: 0}
    - rid: 3647791497536077875
      type: {class: GetGameObjectPlayer, ns: GameCreator.Runtime.Characters, asm: GameCreator.Runtime.Core}
      data: 
    - rid: 3647791497536077876
      type: {class: GetGameObjectInstance, ns: GameCreator.Runtime.Common, asm: GameCreator.Runtime.Core}
      data:
        m_GameObject: {fileID: 1805659447825900147, guid: 8b7f91dd270312c4486bad237af64d50,
          type: 3}
    - rid: 3647791497536077877
      type: {class: InstructionCharacterAttachProp, ns: GameCreator.Runtime.VisualScripting,
        asm: GameCreator.Runtime.Core}
      data:
        m_Breakpoint: 0
        m_IsEnabled: 1
        m_Character:
          m_Property:
            rid: 3647791497536077878
        m_Type: 0
        m_Prop:
          m_Property:
            rid: 3647791497536077879
        m_Handle:
          m_Type: 0
          m_Bone:
            m_Type: 1
            m_Human: 18
            m_Path: 
          m_LocalPosition: {x: 0, y: 0, z: 0}
          m_LocalRotation: {x: 0, y: 0, z: 0}
          m_Handle: {fileID: 0}
    - rid: 3647791497536077878
      type: {class: GetGameObjectPlayer, ns: GameCreator.Runtime.Characters, asm: GameCreator.Runtime.Core}
      data: 
    - rid: 3647791497536077879
      type: {class: GetGameObjectInstance, ns: GameCreator.Runtime.Common, asm: GameCreator.Runtime.Core}
      data:
        m_GameObject: {fileID: 1805659447825900147, guid: 05f2578ba49a1874ba09553d8e485c80,
          type: 3}
    - rid: 3647791497536077880
      type: {class: InstructionCharacterAttachProp, ns: GameCreator.Runtime.VisualScripting,
        asm: GameCreator.Runtime.Core}
      data:
        m_Breakpoint: 0
        m_IsEnabled: 1
        m_Character:
          m_Property:
            rid: 3647791497536077881
        m_Type: 0
        m_Prop:
          m_Property:
            rid: 3647791497536077882
        m_Handle:
          m_Type: 0
          m_Bone:
            m_Type: 1
            m_Human: 5
            m_Path: 
          m_LocalPosition: {x: 0, y: 0, z: 0}
          m_LocalRotation: {x: 0, y: 0, z: 0}
          m_Handle: {fileID: 0}
    - rid: 3647791497536077881
      type: {class: GetGameObjectPlayer, ns: GameCreator.Runtime.Characters, asm: GameCreator.Runtime.Core}
      data: 
    - rid: 3647791497536077882
      type: {class: GetGameObjectInstance, ns: GameCreator.Runtime.Common, asm: GameCreator.Runtime.Core}
      data:
        m_GameObject: {fileID: 1805659447825900147, guid: 40f9b01573f39794eb4293ae5a0a5402,
          type: 3}
    - rid: 3647791497536077883
      type: {class: InstructionCharacterAttachProp, ns: GameCreator.Runtime.VisualScripting,
        asm: GameCreator.Runtime.Core}
      data:
        m_Breakpoint: 0
        m_IsEnabled: 1
        m_Character:
          m_Property:
            rid: 3647791497536077884
        m_Type: 0
        m_Prop:
          m_Property:
            rid: 3647791497536077885
        m_Handle:
          m_Type: 0
          m_Bone:
            m_Type: 1
            m_Human: 6
            m_Path: 
          m_LocalPosition: {x: 0, y: 0, z: 0}
          m_LocalRotation: {x: 0, y: 0, z: 0}
          m_Handle: {fileID: 0}
    - rid: 3647791497536077884
      type: {class: GetGameObjectPlayer, ns: GameCreator.Runtime.Characters, asm: GameCreator.Runtime.Core}
      data: 
    - rid: 3647791497536077885
      type: {class: GetGameObjectInstance, ns: GameCreator.Runtime.Common, asm: GameCreator.Runtime.Core}
      data:
        m_GameObject: {fileID: 1805659447825900147, guid: 3c182af3abba98045bb137ace469e857,
          type: 3}
    - rid: 3647791497536077886
      type: {class: InstructionCharacterRemoveProp, ns: GameCreator.Runtime.VisualScripting,
        asm: GameCreator.Runtime.Core}
      data:
        m_Breakpoint: 0
        m_IsEnabled: 1
        m_Character:
          m_Property:
            rid: 3647791497536077887
        m_Type: 0
        m_Prop:
          m_Property:
            rid: 3647791497536077888
    - rid: 3647791497536077887
      type: {class: GetGameObjectPlayer, ns: GameCreator.Runtime.Characters, asm: GameCreator.Runtime.Core}
      data: 
    - rid: 3647791497536077888
      type: {class: GetGameObjectInstance, ns: GameCreator.Runtime.Common, asm: GameCreator.Runtime.Core}
      data:
        m_GameObject: {fileID: 1805659447825900147, guid: 8b7f91dd270312c4486bad237af64d50,
          type: 3}
    - rid: 3647791497536077889
      type: {class: InstructionCharacterRemoveProp, ns: GameCreator.Runtime.VisualScripting,
        asm: GameCreator.Runtime.Core}
      data:
        m_Breakpoint: 0
        m_IsEnabled: 1
        m_Character:
          m_Property:
            rid: 3647791497536077890
        m_Type: 0
        m_Prop:
          m_Property:
            rid: 3647791497536077891
    - rid: 3647791497536077890
      type: {class: GetGameObjectPlayer, ns: GameCreator.Runtime.Characters, asm: GameCreator.Runtime.Core}
      data: 
    - rid: 3647791497536077891
      type: {class: GetGameObjectInstance, ns: GameCreator.Runtime.Common, asm: GameCreator.Runtime.Core}
      data:
        m_GameObject: {fileID: 1805659447825900147, guid: 05f2578ba49a1874ba09553d8e485c80,
          type: 3}
    - rid: 3647791497536077892
      type: {class: InstructionCharacterRemoveProp, ns: GameCreator.Runtime.VisualScripting,
        asm: GameCreator.Runtime.Core}
      data:
        m_Breakpoint: 0
        m_IsEnabled: 1
        m_Character:
          m_Property:
            rid: 3647791497536077893
        m_Type: 0
        m_Prop:
          m_Property:
            rid: 3647791497536077894
    - rid: 3647791497536077893
      type: {class: GetGameObjectPlayer, ns: GameCreator.Runtime.Characters, asm: GameCreator.Runtime.Core}
      data: 
    - rid: 3647791497536077894
      type: {class: GetGameObjectInstance, ns: GameCreator.Runtime.Common, asm: GameCreator.Runtime.Core}
      data:
        m_GameObject: {fileID: 1805659447825900147, guid: 40f9b01573f39794eb4293ae5a0a5402,
          type: 3}
    - rid: 3647791497536077895
      type: {class: InstructionCharacterRemoveProp, ns: GameCreator.Runtime.VisualScripting,
        asm: GameCreator.Runtime.Core}
      data:
        m_Breakpoint: 0
        m_IsEnabled: 1
        m_Character:
          m_Property:
            rid: 3647791497536077896
        m_Type: 0
        m_Prop:
          m_Property:
            rid: 3647791497536077897
    - rid: 3647791497536077896
      type: {class: GetGameObjectPlayer, ns: GameCreator.Runtime.Characters, asm: GameCreator.Runtime.Core}
      data: 
    - rid: 3647791497536077897
      type: {class: GetGameObjectInstance, ns: GameCreator.Runtime.Common, asm: GameCreator.Runtime.Core}
      data:
        m_GameObject: {fileID: 1805659447825900147, guid: 3c182af3abba98045bb137ace469e857,
          type: 3}
